%module PointInPolygon
%{
#include "Common.h"
#include "PointInPolygon.h"
%}


int bulk_check(char* polygonfile, char* tileslist, char* outputfile);
int check_point(int x, int y, char* polygonfile);


